module gitlab.com/protomicros/go-upnp

go 1.16

require (
	gitlab.com/NebulousLabs/fastrand v0.0.0-20181126182046-603482d69e40
	golang.org/x/crypto v0.0.0-20210322153248-0c34fe9e7dc2 // indirect
	golang.org/x/net v0.0.0-20210410081132-afb366fc7cd1
)
